Supplement 1 – Analysis of human visual experience data
…
… call the function spectral_integration() for each,…

4

… use the brightness sensitivity function,…

5

… and apply the appropriate efficacy weight.

6

Create a long format of the data where the spectrum is unnested

# A tibble: 288 × 4
# Groups:   Id, Date [1]
   Id    Date       Datetime            Illuminance
   <fct> <date>     <dttm>                    <dbl>
 1 VEET  2025-06-18 2025-06-18 00:00:00        3.70
 2 VEET  2025-06-18 2025-06-18 00:05:00        3.79
 3 VEET  2025-06-18 2025-06-18 00:10:00        3.72
 4 VEET  2025-06-18 2025-06-18 00:15:00        6.90
 5 VEET  2025-06-18 2025-06-18 00:20:00        3.53
 6 VEET  2025-06-18 2025-06-18 00:25:00        3.26
 7 VEET  2025-06-18 2025-06-18 00:30:00        3.59
 8 VEET  2025-06-18 2025-06-18 00:35:00        3.49
 9 VEET  2025-06-18 2025-06-18 00:40:00        3.54
10 VEET  2025-06-18 2025-06-18 00:45:00        3.62
# ℹ 278 more rows
…
